<svg viewBox="0 0 14 18">
    <path fill="currentColor" d="M12.502 5.035l-.57-.444a.434.434 0 0 0-.609.076l-6.39 8.198a.38.38 0 0 1-.577.039l-2.614-2.556a.435.435 0 0 0-.614.007l-.505.516a.435.435 0 0 0 .007.614l3.887 3.8a.38.38 0 0 0 .577-.039l7.483-9.602a.435.435 0 0 0-.075-.609z"></path>
</svg>
